trunk/competitive_information/SystemC/SystemC-0-9650391-2-9/EX/CH8/aoi321out.vcd
$date
     Apr 02, 2003       16:59:44
$end

$version
              SystemC 2.0.1 --- Feb 28 2003 14:02:29
$end

$timescale
     1 ps
$end

$scope module SystemC $end
$var wire    1  aaa  a1       $end
$var wire    1  aab  a2       $end
$var wire    1  aac  a3       $end
$var wire    1  aad  b1       $end
$var wire    1  aae  b2       $end
$var wire    1  aaf  c       $end
$var wire    1  aag  z       $end
$upscope $end
$enddefinitions  $end

$comment
All initial values are dumped below at time 0 sec = 0 timescale units.
$end

$dumpvars
0aaa
0aab
0aac
0aad
0aae
0aaf
1aag
$end

#0
1aaa

#3000
0aaa
1aab

#6000
1aaa

#9000
0aaa
0aab
1aac

#12000
1aaa

#15000
0aaa
1aab

#18000
1aaa
0aag

#21000
0aaa
0aab
0aac
1aad
1aag

#24000
1aaa

#27000
0aaa
1aab

#30000
1aaa

#33000
0aaa
0aab
1aac

#36000
1aaa

#39000
0aaa
1aab

#42000
1aaa
0aag

#45000
0aaa
0aab
0aac
0aad
1aae
1aag

#48000
1aaa

#51000
0aaa
1aab

#54000
1aaa

#57000
0aaa
0aab
1aac

#60000
1aaa

#63000
0aaa
1aab

#66000
1aaa
0aag

#69000
0aaa
0aab
0aac
1aad

#72000
1aaa

#75000
0aaa
1aab

#78000
1aaa

#81000
0aaa
0aab
1aac

#84000
1aaa

#87000
0aaa
1aab

#90000
1aaa

#93000
0aaa
0aab
0aac
0aad
0aae
1aaf

#96000
1aaa

#99000
0aaa
1aab

#102000
1aaa

#105000
0aaa
0aab
1aac

#108000
1aaa

#111000
0aaa
1aab

#114000
1aaa

#117000
0aaa
0aab
0aac
1aad

#120000
1aaa

#123000
0aaa
1aab

#126000
1aaa

#129000
0aaa
0aab
1aac

#132000
1aaa

#135000
0aaa
1aab

#138000
1aaa

#141000
0aaa
0aab
0aac
0aad
1aae

#144000
1aaa

#147000
0aaa
1aab

#150000
1aaa

#153000
0aaa
0aab
1aac

#156000
1aaa

#159000
0aaa
1aab

#162000
1aaa

#165000
0aaa
0aab
0aac
1aad

#168000
1aaa

#171000
0aaa
1aab

#174000
1aaa

#177000
0aaa
0aab
1aac

#180000
1aaa

#183000
0aaa
1aab

#186000
1aaa

#189000
0aaa
0aab
0aac
0aad
0aae
0aaf
1aag

#192000
1aaa

#195000
0aaa
1aab

#198000
1aaa

#201000
0aaa
0aab
1aac

#204000
1aaa

#207000
0aaa
1aab

#210000
1aaa
0aag

#213000
0aaa
0aab
0aac
1aad
1aag

#216000
1aaa

#219000
0aaa
1aab

#222000
1aaa

#225000
0aaa
0aab
1aac

#228000
1aaa

#231000
0aaa
1aab

#234000
1aaa
0aag

#237000
0aaa
0aab
0aac
0aad
1aae
1aag

#240000
1aaa

#243000
0aaa
1aab

#246000
1aaa

#249000
0aaa
0aab
1aac

#252000
1aaa

#255000
0aaa
1aab

#258000
1aaa
0aag

#261000
0aaa
0aab
0aac
1aad

#264000
1aaa

#267000
0aaa
1aab

#270000
1aaa

#273000
0aaa
0aab
1aac

#276000
1aaa

#279000
0aaa
1aab

#282000
1aaa

#285000
0aaa
0aab
0aac
0aad
0aae
1aaf

#288000
1aaa

#291000
0aaa
1aab

#294000
1aaa

#297000
0aaa
0aab
1aac

#300000
1aaa

