trunk/competitive_information/SystemC/SystemC-0-9650391-2-9/EX/CH8/pulse.vcd
$date
     Apr 03, 2003       15:55:25
$end

$version
              SystemC 2.0.1 --- Feb 28 2003 14:02:29
$end

$timescale
     1 ps
$end

$scope module SystemC $end
$var wire    1  aaa  clock       $end
$var wire    1  aab  pulse_out       $end
$upscope $end
$enddefinitions  $end

$comment
All initial values are dumped below at time 0 sec = 0 timescale units.
$end

$dumpvars
1aaa
0aab
$end

#2000
1aab

#2500
0aaa

#3000
0aab

#5000
1aaa

#7000
1aab

#7500
0aaa

#8000
0aab

#10000
1aaa

#12000
1aab

#12500
0aaa

#13000
0aab

#15000
1aaa

#17000
1aab

#17500
0aaa

#18000
0aab

#20000
1aaa

#22000
1aab

#22500
0aaa

#23000
0aab

#25000
1aaa

#27000
1aab

#27500
0aaa

#28000
0aab

#30000
1aaa

#32000
1aab

#32500
0aaa

#33000
0aab

#35000
1aaa

#37000
1aab

#37500
0aaa

#38000
0aab

#40000
1aaa

#42000
1aab

#42500
0aaa

#43000
0aab

#45000
1aaa

#47000
1aab

#47500
0aaa

#48000
0aab

#50000
1aaa

#52000
1aab

#52500
0aaa

#53000
0aab

#55000
1aaa

#57000
1aab

#57500
0aaa

#58000
0aab

#60000
1aaa

#62000
1aab

#62500
0aaa

#63000
0aab

#65000
1aaa

#67000
1aab

#67500
0aaa

#68000
0aab

#70000
1aaa

#72000
1aab

#72500
0aaa

#73000
0aab

#75000
1aaa

#77000
1aab

#77500
0aaa

#78000
0aab

#80000
1aaa

#82000
1aab

#82500
0aaa

#83000
0aab

#85000
1aaa

#87000
1aab

#87500
0aaa

#88000
0aab

#90000
1aaa

#92000
1aab

#92500
0aaa

#93000
0aab

#95000
1aaa

#97000
1aab

#97500
0aaa

#98000
0aab

