competitive_information/SystemC/SystemC-0-9650391-2-9/EX/CH8/sync_mux41.vcd
$date
     Apr 07, 2003       11:30:34
$end

$version
              SystemC 2.0.1 --- Feb 28 2003 14:02:29
$end

$timescale
     1 ps
$end

$scope module SystemC $end
$var wire    1  aaa  clock       $end
$var wire    1  aab  reset       $end
$var wire    4  aac  input       $end
$var wire    2  aad  select       $end
$var wire    1  aae  output       $end
$upscope $end
$enddefinitions  $end

$comment
All initial values are dumped below at time 0 sec = 0 timescale units.
$end

$dumpvars
1aaa
1aab
b0 aac
b0 aad
0aae
$end

#1000
0aaa

#2000
1aaa

#3000
0aaa

#4000
1aaa

#5000
0aaa

#6000
1aaa

#7000
0aaa
0aab

#8000
1aaa

#9000
0aaa

#10000
1aaa

#11000
0aaa

#12000
1aaa
b1 aad

#13000
0aaa

#14000
1aaa

#15000
0aaa

#16000
1aaa

#17000
0aaa
b10 aad

#18000
1aaa

#19000
0aaa

#20000
1aaa

#21000
0aaa

#22000
1aaa
b11 aad

#23000
0aaa

#24000
1aaa

#25000
0aaa

#26000
1aaa

#27000
0aaa
b1 aac
b0 aad

#28000
1aaa

#29000
0aaa

#30000
1aaa

#31000
0aaa

#32000
1aaa
b1 aad

#33000
0aaa

#34000
1aaa

#35000
0aaa

#36000
1aaa

#37000
0aaa
b10 aad

#38000
1aaa

#39000
0aaa

#40000
1aaa

#41000
0aaa

#42000
1aaa
b11 aad

#43000
0aaa

#44000
1aaa

#45000
0aaa

#46000
1aaa

#47000
0aaa
b10 aac
b0 aad

#48000
1aaa

#49000
0aaa

#50000
1aaa

#51000
0aaa

#52000
1aaa
b1 aad

#53000
0aaa

#54000
1aaa

#55000
0aaa

#56000
1aaa

#57000
0aaa
b10 aad

#58000
1aaa

#59000
0aaa

#60000
1aaa

#61000
0aaa

#62000
1aaa
b11 aad

#63000
0aaa

#64000
1aaa

#65000
0aaa

#66000
1aaa

#67000
0aaa
b11 aac
b0 aad

#68000
1aaa

#69000
0aaa

#70000
1aaa

#71000
0aaa

#72000
1aaa
b1 aad

#73000
0aaa

#74000
1aaa

#75000
0aaa

#76000
1aaa

#77000
0aaa
b10 aad

#78000
1aaa

#79000
0aaa

#80000
1aaa

#81000
0aaa

#82000
1aaa
b11 aad

#83000
0aaa

#84000
1aaa

#85000
0aaa

#86000
1aaa

#87000
0aaa
b100 aac
b0 aad

#88000
1aaa

#89000
0aaa

#90000
1aaa

#91000
0aaa

#92000
1aaa
b1 aad

#93000
0aaa

#94000
1aaa

#95000
0aaa

#96000
1aaa

#97000
0aaa
b10 aad

