trunk/cslc/misc/projects/chipstart_ssm/ssm_hw/me/systemc/tb_me.vcd
$date
     Apr 20, 2010       11:59:27
$end

$version
              SystemC 2.2.0 --- Oct 10 2009 07:49:18
$end

$timescale
     1 ps
$end

$scope module SystemC $end
$var wire    1  aaa  reset_       $end
$var wire    1  aab  pc_im_v       $end
$var wire    1  aac  im_rf_v       $end
$var wire    1  aad  rf_eu_v       $end
$var wire    1  aae  eu_branch       $end
$var wire    1  aaf  im_RnW       $end
$var wire   32  aag  pc_im_address [31:0]  $end
$var wire   16  aah  pc_0 [15:0]  $end
$var wire   32  aai  im_data [31:0]  $end
$var wire   16  aaj   pc_0 [15:0]  $end
$var wire   16  aak  npc_2 [15:0]  $end
$var wire   16  aal  npc_3 [15:0]  $end
$var wire   16  aam  npc_4 [15:0]  $end
$var wire   32  aan  eu_rf_wr_data [31:0]  $end
$var wire    1  aao  pc_im_v       $end
$var wire    1  aap  im_rf_v       $end
$var wire    1  aaq  rf_eu_v       $end
$var wire    1  aar  eu_rf_wren       $end
$var wire   32  aas  ir_rf_3 [31:0]  $end
$var wire   32  aat  ir_eu_4 [31:0]  $end
$var wire    1  aau  im_clock       $end
$var wire    1  aav  im_RnW       $end
$var wire   32  aaw  pc_im_address [31:0]  $end
$var wire   32  aax  im_data [31:0]  $end
$var wire   32  aay  rf_wr_data [31:0]  $end
$var wire    1  aaz  rf_wren       $end
$var wire   32  aba  rf_rd_data_a [31:0]  $end
$var wire   32  abb  rf_rd_data_b [31:0]  $end
$var wire   32  abc  eu_rf_wr_data_las [31:0]  $end
$var wire   32  abd  eu_rf_wr_data_bit [31:0]  $end
$var wire   32  abe  lasOp [31:0]  $end
$var wire    1  abf  isInstFormatOpLas       $end
$var wire    1  abg  bypass_a       $end
$var wire    1  abh  bypass_b       $end
$var wire   32  abi  rd_data_dest         [31:0]  $end
$var wire    1  abj  rden_a                     $end
$var wire    5  abk  rd_addr_a            [4:0]  $end
$var wire    1  abl  rden_b                     $end
$var wire    5  abm  rd_addr_b            [4:0]  $end
$var wire   32  abn  rd_data_imm_a        [31:0]  $end
$var wire   32  abo  rd_data_rf_a         [31:0]  $end
$var wire    1  abp  swap_wren                  $end
$var wire   32  abq  swap_wr_addr_a       [31:0]  $end
$var wire   32  abr  swap_wr_data_a       [31:0]  $end
$var wire   32  abs  swap_wr_addr_b       [31:0]  $end
$var wire   32  abt  swap_wr_data_b       [31:0]  $end
$var wire    1  abu  swapbit_wren               $end
$var wire   32  abv  swapbit_wr_addr_a    [31:0]  $end
$var wire   32  abw  swapbit_wr_data_a    [31:0]  $end
$var wire   32  abx  swapbit_wr_addr_b    [31:0]  $end
$var wire   32  aby  swapbit_wr_data_b    [31:0]  $end
$var wire    1  abz  testbit_wren               $end
$var wire   32  aca  testbit_wr_addr      [31:0]  $end
$var wire   32  acb  testbit_wr_data      [31:0]  $end
$var wire    1  acc  setbit_wren                $end
$var wire   32  acd  setbit_wr_addr       [31:0]  $end
$var wire   32  ace  setbit_wr_data       [31:0]  $end
$var wire    1  acf  ldimm_ab_16_wren           $end
$var wire   32  acg  ldimm_ab_16_wr_addr  [31:0]  $end
$var wire   32  ach  ldimm_ab_16_wr_data  [31:0]  $end
$var wire    1  aci  rf_mux_in_wren_a           $end
$var wire   32  acj  rf_mux_in_wr_addr_a  [31:0]  $end
$var wire   32  ack  rf_mux_in_wr_data_a  [31:0]  $end
$var wire    1  acl  rf_mux_in_wren_b           $end
$var wire   32  acm  rf_mux_in_wr_addr_b  [31:0]  $end
$var wire   32  acn  rf_mux_in_wr_data_b  [31:0]  $end
$var wire    1  aco  bypass_a                   $end
$var wire    1  acp  bypass_b                   $end
$var wire   32  acq  rd_data_imm_mux_a    [31:0]  $end
$var wire   32  acr  rd_data_bypass_mux_a [31:0]  $end
$var wire   32  acs  rd_data_imm_mux_b    [31:0]  $end
$var wire   32  act  rd_data_bypass_mux_b [31:0]  $end
$var wire   32  acu  rf_dest_data         [31:0]  $end
$var wire   32  acv  eu_rf_wren_int [31:0]  $end
$var wire   32  acw  eu_rf_wr_addr_int [31:0]  $end
$var wire   32  acx  eu_rf_wr_addr_equal_rd_addr_b_1 [31:0]  $end
$var wire    1  acy  rfRdAddrEqEuRfWrAddr_a               $end
$var wire    1  acz  rfRdAddrEqEuRfWrAddr_b               $end
$var wire    1  ada  eu_rf_wr_addr_equal_rd_addr_a       $end
$var wire    1  adb  eu_rf_wr_addr_equal_rd_addr_b       $end
$var wire   32  adc  rfa_0  [31:0]  $end
$var wire   32  add  rfa_1  [31:0]  $end
$var wire   32  ade  rfa_2  [31:0]  $end
$var wire   32  adf  rfa_3  [31:0]  $end
$var wire   32  adg  rfa_4  [31:0]  $end
$var wire   32  adh  rfa_5  [31:0]  $end
$var wire   32  adi  rfa_6  [31:0]  $end
$var wire   32  adj  rfa_7  [31:0]  $end
$var wire   32  adk  rfa_8  [31:0]  $end
$var wire   32  adl  rfa_9  [31:0]  $end
$var wire   32  adm  rfa_10 [31:0]  $end
$var wire   32  adn  rfa_11 [31:0]  $end
$var wire   32  ado  rfa_12 [31:0]  $end
$var wire   32  adp  rfa_13 [31:0]  $end
$var wire   32  adq  rfa_14 [31:0]  $end
$var wire   32  adr  rfa_15 [31:0]  $end
$var wire   32  ads  rfa_16 [31:0]  $end
$var wire   32  adt  rfa_17 [31:0]  $end
$var wire   32  adu  rfa_18 [31:0]  $end
$var wire   32  adv  rfa_19 [31:0]  $end
$var wire   32  adw  rfa_20 [31:0]  $end
$var wire   32  adx  rfa_21 [31:0]  $end
$var wire   32  ady  rfa_22 [31:0]  $end
$var wire   32  adz  rfa_23 [31:0]  $end
$var wire   32  aea  rfa_24 [31:0]  $end
$var wire   32  aeb  rfa_25 [31:0]  $end
$var wire   32  aec  rfa_26 [31:0]  $end
$var wire   32  aed  rfa_27 [31:0]  $end
$var wire   32  aee  rfa_28 [31:0]  $end
$var wire   32  aef  rfa_29 [31:0]  $end
$var wire   32  aeg  rfa_30 [31:0]  $end
$var wire   32  aeh  rfa_31 [31:0]  $end
$var wire    1  aei  eu_branch           $end
$var wire    1  aej  eu_rf_wren          $end
$var wire    5  aek  eu_rf_wr_addr [4:0]  $end
$var wire   32  ael  eu_rf_wr_data [31:0]  $end
$var wire   32  aem  src_b         [31:0]  $end
$var wire   32  aen  src_a         [31:0]  $end
$var wire   32  aeo  rf_eu_ir      [31:0]  $end
$var wire    1  aep  rf_eu_v       $end
$var wire    1  aeq  rf_eu_v                    $end
$var wire    1  aer  im_rf_v                    $end
$var wire   32  aes  rd_data_b            [31:0]  $end
$var wire   32  aet  rd_data_a            [31:0]  $end
$var wire   32  aeu  im_rf_ir [31:0]  $end
$var wire    1  aev  enable       $end
$var wire    1  aew  reset_       $end
$var wire    1  aex  clk       $end
$upscope $end
$enddefinitions  $end

$comment
All initial values are dumped below at time 0 sec = 0 timescale units.
$end

$dumpvars
1aaa
0aab
0aac
0aad
0aae
1aaf
b0 aag
b0 aah
b0 aai
b0 aaj
b0 aak
b0 aal
b0 aam
b0 aan
0aao
0aap
0aaq
0aar
b0 aas
b0 aat
0aau
1aav
b0 aaw
b0 aax
b0 aay
0aaz
b0 aba
b0 abb
b0 abc
b0 abd
b0 abe
1abf
0abg
0abh
b0 abi
0abj
b0 abk
0abl
b0 abm
b0 abn
b0 abo
0abp
b0 abq
b0 abr
b0 abs
b0 abt
0abu
b0 abv
b0 abw
b0 abx
b0 aby
0abz
b0 aca
b0 acb
0acc
b0 acd
b0 ace
0acf
b0 acg
b0 ach
0aci
b0 acj
b0 ack
0acl
b0 acm
b0 acn
0aco
0acp
b0 acq
b0 acr
b0 acs
b0 act
b0 acu
b0 acv
b0 acw
b1 acx
0acy
0acz
1ada
1adb
b0 adc
b0 add
b0 ade
b0 adf
b0 adg
b0 adh
b0 adi
b0 adj
b0 adk
b0 adl
b0 adm
b0 adn
b0 ado
b0 adp
b0 adq
b0 adr
b0 ads
b0 adt
b0 adu
b0 adv
b0 adw
b0 adx
b0 ady
b0 adz
b0 aea
b0 aeb
b0 aec
b0 aed
b0 aee
b0 aef
b0 aeg
b0 aeh
0aei
0aej
b0 aek
b0 ael
b0 aem
b0 aen
b0 aeo
0aep
0aeq
0aer
b0 aes
b0 aet
b0 aeu
0aev
1aew
1aex
$end

#5000
0aex

#10000
b10111111000000000000000000000010 aai
b10111111000000000000000000000010 aax
b10 abm
b10 acs
b10 act
b0 acx
0adb
b10111111000000000000000000000010 aeu
1aex

#15000
0aex

#20000
b10 aak
b10111111000000000000000000000010 aas
b10 abb
b1111 abe
0abf
b10 aem
b10111111000000000000000000000010 aeo
b10 aes
1aex

#25000
0aex

#30000
b10 aal
b10111111000000000000000000000010 aat
1aex

#35000
0aex

#40000
1aex

#45000
0aex

#50000
1aex

#55000
0aex

#60000
1aex

#65000
0aex

#70000
1aex

#75000
0aex

#80000
1aex

#85000
0aex

#90000
1aex

#95000
0aex

#100000
1aex

#105000
0aex

#110000
1aex

#115000
0aex

#120000
1aex

#125000
0aex

#130000
1aex

#135000
0aex

#140000
1aex

#145000
0aex

#150000
1aex

#155000
0aex

#160000
1aex

#165000
0aex

#170000
1aex

#175000
0aex

#180000
1aex

#185000
0aex

#190000
1aex

#195000
0aex

#200000
1aex

#205000
0aex

#210000
0aaa
0aew
1aex

#215000
0aex

#220000
1aex

#225000
0aex

#230000
1aex

#235000
0aex

#240000
1aex

#245000
0aex

#250000
1aaa
1aab
1aao
1abj
1abl
1aev
1aew
1aex

#255000
0aex

#260000
1aac
b1 aag
1aap
b1 aaw
1aer
1aex

#265000
0aex

#270000
1aad
b10 aag
b10000000000000000000000000000000 aai
1aaq
b10 aaw
b10000000000000000000000000000000 aax
b0 abm
1acf
b0 acs
b0 act
b1 acx
1adb
1aep
1aeq
b10000000000000000000000000000000 aeu
1aex

#275000
0aex

#280000
0aad
b11 aag
b10000000000000010000000000000001 aai
b0 aak
0aaq
b10000000000000000000000000000000 aas
b11 aaw
b10000000000000010000000000000001 aax
b0 abb
b0 abe
b1 abm
b1 acg
b1 ach
b1 acu
b0 acx
0adb
b0 aem
b10000000000000000000000000000000 aeo
0aep
0aeq
b0 aes
b10000000000000010000000000000001 aeu
1aex

#285000
0aex

#290000
b100 aag
b10000000000000100000000000000010 aai
b1 aak
b0 aal
b10000000000000010000000000000001 aas
b10000000000000000000000000000000 aat
b100 aaw
b10000000000000100000000000000010 aax
b10 abm
b10 acg
b10 ach
b10 acu
b1 add
b10000000000000010000000000000001 aeo
b10000000000000100000000000000010 aeu
1aex

#295000
0aex

#300000
b101 aag
b10000000000000110000000000000011 aai
b10 aak
b1 aal
b10000000000000100000000000000010 aas
b10000000000000010000000000000001 aat
b101 aaw
b10000000000000110000000000000011 aax
b11 abm
b11 acg
b11 ach
b11 acu
b10 ade
b10000000000000100000000000000010 aeo
b10000000000000110000000000000011 aeu
1aex

#305000
0aex

#310000
b110 aag
b10000000000001000000000000000100 aai
b11 aak
b10 aal
b10000000000000110000000000000011 aas
b10000000000000100000000000000010 aat
b110 aaw
b10000000000001000000000000000100 aax
b100 abm
b100 acg
b100 ach
b100 acu
b11 adf
b10000000000000110000000000000011 aeo
b10000000000001000000000000000100 aeu
1aex

#315000
0aex

#320000
b111 aag
b10000000000001010000000000000101 aai
b100 aak
b11 aal
b10000000000001000000000000000100 aas
b10000000000000110000000000000011 aat
b111 aaw
b10000000000001010000000000000101 aax
b101 abm
b101 acg
b101 ach
b101 acu
b100 adg
b10000000000001000000000000000100 aeo
b10000000000001010000000000000101 aeu
1aex

#325000
0aex

#330000
b1000 aag
b10000000000001100000000000000110 aai
b101 aak
b100 aal
b10000000000001010000000000000101 aas
b10000000000001000000000000000100 aat
b1000 aaw
b10000000000001100000000000000110 aax
b110 abm
b110 acg
b110 ach
b110 acu
b101 adh
b10000000000001010000000000000101 aeo
b10000000000001100000000000000110 aeu
1aex

#335000
0aex

#340000
b1001 aag
b10000000000001110000000000000111 aai
b110 aak
b101 aal
b10000000000001100000000000000110 aas
b10000000000001010000000000000101 aat
b1001 aaw
b10000000000001110000000000000111 aax
b111 abm
b111 acg
b111 ach
b111 acu
b110 adi
b10000000000001100000000000000110 aeo
b10000000000001110000000000000111 aeu
1aex

#345000
0aex

#350000
b1010 aag
b10000000000010000000000000001000 aai
b111 aak
b110 aal
b10000000000001110000000000000111 aas
b10000000000001100000000000000110 aat
b1010 aaw
b10000000000010000000000000001000 aax
b1000 abm
b1000 acg
b1000 ach
b1000 acu
b111 adj
b10000000000001110000000000000111 aeo
b10000000000010000000000000001000 aeu
1aex

#355000
0aex

#360000
b1011 aag
b10000000000010010000000000001001 aai
b1000 aak
b111 aal
b10000000000010000000000000001000 aas
b10000000000001110000000000000111 aat
b1011 aaw
b10000000000010010000000000001001 aax
b1001 abm
b1001 acg
b1001 ach
b1001 acu
b1000 adk
b10000000000010000000000000001000 aeo
b10000000000010010000000000001001 aeu
1aex

#365000
0aex

#370000
b1100 aag
b10000000000010100000000000001010 aai
b1001 aak
b1000 aal
b10000000000010010000000000001001 aas
b10000000000010000000000000001000 aat
b1100 aaw
b10000000000010100000000000001010 aax
b1010 abm
b1010 acg
b1010 ach
b1010 acu
b1001 adl
b10000000000010010000000000001001 aeo
b10000000000010100000000000001010 aeu
1aex

#375000
0aex

#380000
b1101 aag
b10000000000010110000000000001011 aai
b1010 aak
b1001 aal
b10000000000010100000000000001010 aas
b10000000000010010000000000001001 aat
b1101 aaw
b10000000000010110000000000001011 aax
b1011 abm
b1011 acg
b1011 ach
b1011 acu
b1010 adm
b10000000000010100000000000001010 aeo
b10000000000010110000000000001011 aeu
1aex

#385000
0aex

#390000
b1110 aag
b10000000000011000000000000001100 aai
b1011 aak
b1010 aal
b10000000000010110000000000001011 aas
b10000000000010100000000000001010 aat
b1110 aaw
b10000000000011000000000000001100 aax
b1100 abm
b1100 acg
b1100 ach
b1100 acu
b1011 adn
b10000000000010110000000000001011 aeo
b10000000000011000000000000001100 aeu
1aex

#395000
0aex

#400000
b1111 aag
b10000000000011010000000000001101 aai
b1100 aak
b1011 aal
b10000000000011000000000000001100 aas
b10000000000010110000000000001011 aat
b1111 aaw
b10000000000011010000000000001101 aax
b1101 abm
b1101 acg
b1101 ach
b1101 acu
b1100 ado
b10000000000011000000000000001100 aeo
b10000000000011010000000000001101 aeu
1aex

#405000
0aex

#410000
b10000 aag
b10000000000011100000000000001110 aai
b1101 aak
b1100 aal
b10000000000011010000000000001101 aas
b10000000000011000000000000001100 aat
b10000 aaw
b10000000000011100000000000001110 aax
b1110 abm
b1110 acg
b1110 ach
b1110 acu
b1101 adp
b10000000000011010000000000001101 aeo
b10000000000011100000000000001110 aeu
1aex

#415000
0aex

#420000
b10001 aag
b10000000000011110000000000001111 aai
b1110 aak
b1101 aal
b10000000000011100000000000001110 aas
b10000000000011010000000000001101 aat
b10001 aaw
b10000000000011110000000000001111 aax
b1111 abm
b1111 acg
b1111 ach
b1111 acu
b1110 adq
b10000000000011100000000000001110 aeo
b10000000000011110000000000001111 aeu
1aex

#425000
0aex

#430000
b10010 aag
b10000000000100000000000000010000 aai
b1111 aak
b1110 aal
b10000000000011110000000000001111 aas
b10000000000011100000000000001110 aat
b10010 aaw
b10000000000100000000000000010000 aax
b10000 abm
b10000 acg
b10000 ach
b10000 acu
b1111 adr
b10000000000011110000000000001111 aeo
b10000000000100000000000000010000 aeu
1aex

#435000
0aex

#440000
b10011 aag
b10000000000100010000000000010001 aai
b10000 aak
b1111 aal
b10000000000100000000000000010000 aas
b10000000000011110000000000001111 aat
b10011 aaw
b10000000000100010000000000010001 aax
b10001 abm
b10001 acg
b10001 ach
b10001 acu
b10000 ads
b10000000000100000000000000010000 aeo
b10000000000100010000000000010001 aeu
1aex

#445000
0aex

#450000
b10100 aag
b10000000000100100000000000010010 aai
b10001 aak
b10000 aal
b10000000000100010000000000010001 aas
b10000000000100000000000000010000 aat
b10100 aaw
b10000000000100100000000000010010 aax
b10010 abm
b10010 acg
b10010 ach
b10010 acu
b10001 adt
b10000000000100010000000000010001 aeo
b10000000000100100000000000010010 aeu
1aex

#455000
0aex

#460000
b10101 aag
b10000000000100110000000000010011 aai
b10010 aak
b10001 aal
b10000000000100100000000000010010 aas
b10000000000100010000000000010001 aat
b10101 aaw
b10000000000100110000000000010011 aax
b10011 abm
b10011 acg
b10011 ach
b10011 acu
b10010 adu
b10000000000100100000000000010010 aeo
b10000000000100110000000000010011 aeu
1aex

#465000
0aex

#470000
b10110 aag
b10000000000101000000000000010100 aai
b10011 aak
b10010 aal
b10000000000100110000000000010011 aas
b10000000000100100000000000010010 aat
b10110 aaw
b10000000000101000000000000010100 aax
b10100 abm
b10100 acg
b10100 ach
b10100 acu
b10011 adv
b10000000000100110000000000010011 aeo
b10000000000101000000000000010100 aeu
1aex

#475000
0aex

#480000
b10111 aag
b10000000000101010000000000010101 aai
b10100 aak
b10011 aal
b10000000000101000000000000010100 aas
b10000000000100110000000000010011 aat
b10111 aaw
b10000000000101010000000000010101 aax
b10101 abm
b10101 acg
b10101 ach
b10101 acu
b10100 adw
b10000000000101000000000000010100 aeo
b10000000000101010000000000010101 aeu
1aex

#485000
0aex

#490000
b11000 aag
b10000000000101100000000000010110 aai
b10101 aak
b10100 aal
b10000000000101010000000000010101 aas
b10000000000101000000000000010100 aat
b11000 aaw
b10000000000101100000000000010110 aax
b10110 abm
b10110 acg
b10110 ach
b10110 acu
b10101 adx
b10000000000101010000000000010101 aeo
b10000000000101100000000000010110 aeu
1aex

#495000
0aex

#500000
b11001 aag
b10000000000101110000000000010111 aai
b10110 aak
b10101 aal
b10000000000101100000000000010110 aas
b10000000000101010000000000010101 aat
b11001 aaw
b10000000000101110000000000010111 aax
b10111 abm
b10111 acg
b10111 ach
b10111 acu
b10110 ady
b10000000000101100000000000010110 aeo
b10000000000101110000000000010111 aeu
1aex

#505000
0aex

#510000
b11010 aag
b10000000000110000000000000011000 aai
b10111 aak
b10110 aal
b10000000000101110000000000010111 aas
b10000000000101100000000000010110 aat
b11010 aaw
b10000000000110000000000000011000 aax
b11000 abm
b11000 acg
b11000 ach
b11000 acu
b10111 adz
b10000000000101110000000000010111 aeo
b10000000000110000000000000011000 aeu
1aex

#515000
0aex

#520000
b11011 aag
b10000000000110010000000000011001 aai
b11000 aak
b10111 aal
b10000000000110000000000000011000 aas
b10000000000101110000000000010111 aat
b11011 aaw
b10000000000110010000000000011001 aax
b11001 abm
b11001 acg
b11001 ach
b11001 acu
b11000 aea
b10000000000110000000000000011000 aeo
b10000000000110010000000000011001 aeu
1aex

#525000
0aex

#530000
b11100 aag
b10000000000110100000000000011010 aai
b11001 aak
b11000 aal
b10000000000110010000000000011001 aas
b10000000000110000000000000011000 aat
b11100 aaw
b10000000000110100000000000011010 aax
b11010 abm
b11010 acg
b11010 ach
b11010 acu
b11001 aeb
b10000000000110010000000000011001 aeo
b10000000000110100000000000011010 aeu
1aex

#535000
0aex

#540000
b11101 aag
b10000000000110110000000000011011 aai
b11010 aak
b11001 aal
b10000000000110100000000000011010 aas
b10000000000110010000000000011001 aat
b11101 aaw
b10000000000110110000000000011011 aax
b11011 abm
b11011 acg
b11011 ach
b11011 acu
b11010 aec
b10000000000110100000000000011010 aeo
b10000000000110110000000000011011 aeu
1aex

#545000
0aex

#550000
b11110 aag
b10000000000111000000000000011100 aai
b11011 aak
b11010 aal
b10000000000110110000000000011011 aas
b10000000000110100000000000011010 aat
b11110 aaw
b10000000000111000000000000011100 aax
b11100 abm
b11100 acg
b11100 ach
b11100 acu
b11011 aed
b10000000000110110000000000011011 aeo
b10000000000111000000000000011100 aeu
1aex

#555000
0aex

#560000
b11111 aag
b10000000000111010000000000011101 aai
b11100 aak
b11011 aal
b10000000000111000000000000011100 aas
b10000000000110110000000000011011 aat
b11111 aaw
b10000000000111010000000000011101 aax
b11101 abm
b11101 acg
b11101 ach
b11101 acu
b11100 aee
b10000000000111000000000000011100 aeo
b10000000000111010000000000011101 aeu
1aex

#565000
0aex

#570000
b100000 aag
b10000000000111100000000000011110 aai
b11101 aak
b11100 aal
b10000000000111010000000000011101 aas
b10000000000111000000000000011100 aat
b100000 aaw
b10000000000111100000000000011110 aax
b11110 abm
b11110 acg
b11110 ach
b11110 acu
b11101 aef
b10000000000111010000000000011101 aeo
b10000000000111100000000000011110 aeu
1aex

#575000
0aex

#580000
b100001 aag
b10000000000111110000000000011111 aai
b11110 aak
b11101 aal
b10000000000111100000000000011110 aas
b10000000000111010000000000011101 aat
b100001 aaw
b10000000000111110000000000011111 aax
b11111 abm
b11111 acg
b11111 ach
b11111 acu
b11110 aeg
b10000000000111100000000000011110 aeo
b10000000000111110000000000011111 aeu
1aex

#585000
0aex

#590000
b100010 aag
b1 aai
b11111 aak
b11110 aal
b10000000000111110000000000011111 aas
b10000000000111100000000000011110 aat
b100010 aaw
b1 aax
b1 abm
0acf
b1 acs
b1 act
b11111 aeh
b10000000000111110000000000011111 aeo
b1 aeu
1aex

#595000
0aex

#600000
1aad
b100011 aag
b10 aai
b1 aak
b11111 aal
b1 aan
1aaq
1aar
b1 aas
b10000000000111110000000000011111 aat
b100011 aaw
b10 aax
b1 abb
1abf
1abg
b10 abm
1aco
b1 acr
b10 acs
b10 act
b1 acv
1acy
1aej
b1 ael
b1 aem
b1 aeo
1aep
1aeq
b1 aes
b10 aeu
1aex

#605000
0aex

#610000
b100100 aag
b11 aai
b10 aak
b1 aal
b11 aan
b10 aas
b1 aat
b100100 aaw
b11 aax
b1 aba
b10 abb
b11 abm
b11 acr
b11 acs
b11 act
b11 ael
b10 aem
b1 aen
b10 aeo
b10 aes
b1 aet
b11 aeu
1aex

#615000
0aex

#620000
b100101 aag
b100 aai
b11 aak
b10 aal
b110 aan
b11 aas
b10 aat
b100101 aaw
b100 aax
b11 aba
b11 abb
b100 abm
b110 acr
b100 acs
b100 act
b110 ael
b11 aem
b11 aen
b11 aeo
b11 aes
b11 aet
b100 aeu
1aex

#625000
0aex

#630000
b100110 aag
b101 aai
b100 aak
b11 aal
b1010 aan
b100 aas
b11 aat
b100110 aaw
b101 aax
b110 aba
b100 abb
b101 abm
b1010 acr
b101 acs
b101 act
b1010 ael
b100 aem
b110 aen
b100 aeo
b100 aes
b110 aet
b101 aeu
1aex

#635000
0aex

#640000
b100111 aag
b110 aai
b101 aak
b100 aal
b1111 aan
b101 aas
b100 aat
b100111 aaw
b110 aax
b1010 aba
b101 abb
b110 abm
b1111 acr
b110 acs
b110 act
b1111 ael
b101 aem
b1010 aen
b101 aeo
b101 aes
b1010 aet
b110 aeu
1aex

#645000
0aex

#650000
b101000 aag
b111 aai
b110 aak
b101 aal
b10101 aan
b110 aas
b101 aat
b101000 aaw
b111 aax
b1111 aba
b110 abb
b111 abm
b10101 acr
b111 acs
b111 act
b10101 ael
b110 aem
b1111 aen
b110 aeo
b110 aes
b1111 aet
b111 aeu
1aex

#655000
0aex

#660000
b101001 aag
b1000 aai
b111 aak
b110 aal
b11100 aan
b111 aas
b110 aat
b101001 aaw
b1000 aax
b10101 aba
b111 abb
b1000 abm
b11100 acr
b1000 acs
b1000 act
b11100 ael
b111 aem
b10101 aen
b111 aeo
b111 aes
b10101 aet
b1000 aeu
1aex

#665000
0aex

#670000
b101010 aag
b1001 aai
b1000 aak
b111 aal
b100100 aan
b1000 aas
b111 aat
b101010 aaw
b1001 aax
b11100 aba
b1000 abb
b1001 abm
b100100 acr
b1001 acs
b1001 act
b100100 ael
b1000 aem
b11100 aen
b1000 aeo
b1000 aes
b11100 aet
b1001 aeu
1aex

#675000
0aex

#680000
b101011 aag
b1010 aai
b1001 aak
b1000 aal
b101101 aan
b1001 aas
b1000 aat
b101011 aaw
b1010 aax
b100100 aba
b1001 abb
b1010 abm
b101101 acr
b1010 acs
b1010 act
b101101 ael
b1001 aem
b100100 aen
b1001 aeo
b1001 aes
b100100 aet
b1010 aeu
1aex

#685000
0aex

#690000
b101100 aag
b1011 aai
b1010 aak
b1001 aal
b110111 aan
b1010 aas
b1001 aat
b101100 aaw
b1011 aax
b101101 aba
b1010 abb
b1011 abm
b110111 acr
b1011 acs
b1011 act
b110111 ael
b1010 aem
b101101 aen
b1010 aeo
b1010 aes
b101101 aet
b1011 aeu
1aex

#695000
0aex

#700000
b101101 aag
b1100 aai
b1011 aak
b1010 aal
b1000010 aan
b1011 aas
b1010 aat
b101101 aaw
b1100 aax
b110111 aba
b1011 abb
b1100 abm
b1000010 acr
b1100 acs
b1100 act
b1000010 ael
b1011 aem
b110111 aen
b1011 aeo
b1011 aes
b110111 aet
b1100 aeu
1aex

#705000
0aex

#710000
b101110 aag
b1101 aai
b1100 aak
b1011 aal
b1001110 aan
b1100 aas
b1011 aat
b101110 aaw
b1101 aax
b1000010 aba
b1100 abb
b1101 abm
b1001110 acr
b1101 acs
b1101 act
b1001110 ael
b1100 aem
b1000010 aen
b1100 aeo
b1100 aes
b1000010 aet
b1101 aeu
1aex

#715000
0aex

#720000
b101111 aag
b1110 aai
b1101 aak
b1100 aal
b1011011 aan
b1101 aas
b1100 aat
b101111 aaw
b1110 aax
b1001110 aba
b1101 abb
b1110 abm
b1011011 acr
b1110 acs
b1110 act
b1011011 ael
b1101 aem
b1001110 aen
b1101 aeo
b1101 aes
b1001110 aet
b1110 aeu
1aex

#725000
0aex

#730000
b110000 aag
b1111 aai
b1110 aak
b1101 aal
b1101001 aan
b1110 aas
b1101 aat
b110000 aaw
b1111 aax
b1011011 aba
b1110 abb
b1111 abm
b1101001 acr
b1111 acs
b1111 act
b1101001 ael
b1110 aem
b1011011 aen
b1110 aeo
b1110 aes
b1011011 aet
b1111 aeu
1aex

#735000
0aex

#740000
b110001 aag
b10000 aai
b1111 aak
b1110 aal
b1111000 aan
b1111 aas
b1110 aat
b110001 aaw
b10000 aax
b1101001 aba
b1111 abb
b10000 abm
b1111000 acr
b10000 acs
b10000 act
b1111000 ael
b1111 aem
b1101001 aen
b1111 aeo
b1111 aes
b1101001 aet
b10000 aeu
1aex

#745000
0aex

#750000
b110010 aag
b10001 aai
b10000 aak
b1111 aal
b10001000 aan
b10000 aas
b1111 aat
b110010 aaw
b10001 aax
b1111000 aba
b10000 abb
b10001 abm
b10001000 acr
b10001 acs
b10001 act
b10001000 ael
b10000 aem
b1111000 aen
b10000 aeo
b10000 aes
b1111000 aet
b10001 aeu
1aex

#755000
0aex

#760000
b110011 aag
b10010 aai
b10001 aak
b10000 aal
b10011001 aan
b10001 aas
b10000 aat
b110011 aaw
b10010 aax
b10001000 aba
b10001 abb
b10010 abm
b10011001 acr
b10010 acs
b10010 act
b10011001 ael
b10001 aem
b10001000 aen
b10001 aeo
b10001 aes
b10001000 aet
b10010 aeu
1aex

#765000
0aex

#770000
b110100 aag
b10011 aai
b10010 aak
b10001 aal
b10101011 aan
b10010 aas
b10001 aat
b110100 aaw
b10011 aax
b10011001 aba
b10010 abb
b10011 abm
b10101011 acr
b10011 acs
b10011 act
b10101011 ael
b10010 aem
b10011001 aen
b10010 aeo
b10010 aes
b10011001 aet
b10011 aeu
1aex

#775000
0aex

#780000
b110101 aag
b10100 aai
b10011 aak
b10010 aal
b10111110 aan
b10011 aas
b10010 aat
b110101 aaw
b10100 aax
b10101011 aba
b10011 abb
b10100 abm
b10111110 acr
b10100 acs
b10100 act
b10111110 ael
b10011 aem
b10101011 aen
b10011 aeo
b10011 aes
b10101011 aet
b10100 aeu
1aex

#785000
0aex

#790000
b110110 aag
b10101 aai
b10100 aak
b10011 aal
b11010010 aan
b10100 aas
b10011 aat
b110110 aaw
b10101 aax
b10111110 aba
b10100 abb
b10101 abm
b11010010 acr
b10101 acs
b10101 act
b11010010 ael
b10100 aem
b10111110 aen
b10100 aeo
b10100 aes
b10111110 aet
b10101 aeu
1aex

#795000
0aex

#800000
b110111 aag
b10110 aai
b10101 aak
b10100 aal
b11100111 aan
b10101 aas
b10100 aat
b110111 aaw
b10110 aax
b11010010 aba
b10101 abb
b10110 abm
b11100111 acr
b10110 acs
b10110 act
b11100111 ael
b10101 aem
b11010010 aen
b10101 aeo
b10101 aes
b11010010 aet
b10110 aeu
1aex

#805000
0aex

#810000
b111000 aag
b10111 aai
b10110 aak
b10101 aal
b11111101 aan
b10110 aas
b10101 aat
b111000 aaw
b10111 aax
b11100111 aba
b10110 abb
b10111 abm
b11111101 acr
b10111 acs
b10111 act
b11111101 ael
b10110 aem
b11100111 aen
b10110 aeo
b10110 aes
b11100111 aet
b10111 aeu
1aex

#815000
0aex

#820000
b111001 aag
b11000 aai
b10111 aak
b10110 aal
b100010100 aan
b10111 aas
b10110 aat
b111001 aaw
b11000 aax
b11111101 aba
b10111 abb
b11000 abm
b100010100 acr
b11000 acs
b11000 act
b100010100 ael
b10111 aem
b11111101 aen
b10111 aeo
b10111 aes
b11111101 aet
b11000 aeu
1aex

#825000
0aex

#830000
b111010 aag
b11001 aai
b11000 aak
b10111 aal
b100101100 aan
b11000 aas
b10111 aat
b111010 aaw
b11001 aax
b100010100 aba
b11000 abb
b11001 abm
b100101100 acr
b11001 acs
b11001 act
b100101100 ael
b11000 aem
b100010100 aen
b11000 aeo
b11000 aes
b100010100 aet
b11001 aeu
1aex

#835000
0aex

#840000
b111011 aag
b11010 aai
b11001 aak
b11000 aal
b101000101 aan
b11001 aas
b11000 aat
b111011 aaw
b11010 aax
b100101100 aba
b11001 abb
b11010 abm
b101000101 acr
b11010 acs
b11010 act
b101000101 ael
b11001 aem
b100101100 aen
b11001 aeo
b11001 aes
b100101100 aet
b11010 aeu
1aex

#845000
0aex

